<svg width="121" height="26" viewBox="0 0 121 26" fill="none" xmlns="http://www.w3.org/2000/svg">
<path d="M25.2591 15.5892C23.5895 22.2856 16.8072 26.3609 10.1101 24.691C3.41564 23.0215 -0.659694 16.2388 1.01059 9.54283C2.67932 2.84566 9.46164 -1.23005 16.1568 0.439454C22.8536 2.10896 26.9286 8.89245 25.2591 15.5892Z" fill="#F7931A"/>
<path d="M18.6459 10.7846C18.8947 9.12134 17.6283 8.22722 15.8967 7.63074L16.4584 5.37765L15.0869 5.03586L14.5401 7.22957C14.1795 7.13973 13.8092 7.05497 13.4413 6.97099L13.992 4.76281L12.6214 4.42102L12.0593 6.67333C11.7608 6.60536 11.4679 6.53818 11.1835 6.46748L11.1851 6.46044L9.29368 5.98818L8.92885 7.453C8.92885 7.453 9.94641 7.6862 9.92492 7.70066C10.4804 7.83932 10.5808 8.20689 10.564 8.4983L9.92414 11.0651C9.96242 11.0748 10.012 11.0889 10.0667 11.1108C10.021 11.0994 9.97219 11.0869 9.9218 11.0748L9.02493 14.6705C8.95696 14.8392 8.78471 15.0923 8.39643 14.9962C8.4101 15.0162 7.39957 14.7474 7.39957 14.7474L6.71872 16.3173L8.50346 16.7622C8.83548 16.8454 9.16087 16.9325 9.48117 17.0146L8.91361 19.2934L10.2835 19.6352L10.8456 17.3806C11.2198 17.4821 11.5831 17.5759 11.9386 17.6642L11.3784 19.9083L12.7499 20.2501L13.3174 17.9755C15.6561 18.4181 17.4146 18.2396 18.1549 16.1244C18.7513 14.4213 18.1252 13.4389 16.8947 12.7982C17.7908 12.5916 18.4658 12.0022 18.6459 10.7846ZM15.5123 15.1787C15.0885 16.8818 12.221 15.9611 11.2913 15.7302L12.0444 12.7111C12.9741 12.9431 15.9553 13.4025 15.5123 15.1787ZM15.9365 10.76C15.5498 12.3092 13.1631 11.5221 12.3889 11.3291L13.0717 8.59088C13.846 8.78385 16.3393 9.14399 15.9365 10.76Z" fill="white"/>
<path d="M37.2667 7.62841C38.2803 7.62841 39.1561 7.81004 39.892 8.16667C40.6315 8.52682 41.2416 9.01198 41.7311 9.62213C42.2139 10.2354 42.5732 10.9522 42.8053 11.7737C43.0357 12.5975 43.1514 13.483 43.1514 14.431C43.1514 15.8873 42.8846 17.263 42.3459 18.5599C41.8072 19.8587 41.0764 20.9852 40.1467 21.9461C39.2178 22.9059 38.121 23.6625 36.8562 24.2215C35.5933 24.7809 34.2203 25.0606 32.7461 25.0606C32.5554 25.0606 32.2203 25.0551 31.7468 25.0453C31.2734 25.0356 30.7293 24.9867 30.1199 24.9043C29.5067 24.8188 28.8582 24.6922 28.1735 24.5227C27.4891 24.3563 26.8391 24.1231 26.227 23.827L31.7004 0.828909L36.6026 0.0691528L34.6429 8.23036C35.0624 8.0413 35.4851 7.89481 35.9069 7.78817C36.3292 7.68309 36.7823 7.62841 37.2667 7.62841ZM33.1546 21.1715C33.8929 21.1715 34.5886 20.9899 35.2421 20.6333C35.8976 20.2763 36.4632 19.7942 36.937 19.1938C37.4108 18.5907 37.7858 17.9115 38.0593 17.1525C38.3327 16.3935 38.471 15.6017 38.471 14.7779C38.471 13.7658 38.3018 12.9764 37.9647 12.4057C37.6276 11.8373 37.0038 11.5514 36.098 11.5514C35.8011 11.5514 35.4187 11.608 34.9445 11.7092C34.4687 11.8166 34.0429 12.0397 33.6613 12.3752L31.5746 21.0423C31.7004 21.0645 31.8117 21.0856 31.9066 21.1055C31.9996 21.127 32.1023 21.1423 32.2047 21.1528C32.3129 21.1649 32.4367 21.1712 32.5863 21.1712C32.7359 21.1712 32.923 21.1715 33.1546 21.1715Z" fill="#4D4D4D"/>
<path d="M48.2353 24.6203H43.5529L47.5072 7.98114H52.2215L48.2353 24.6203ZM50.5137 5.95383C49.8602 5.95383 49.2677 5.7593 48.7419 5.36946C48.2118 4.98197 47.9493 4.3855 47.9493 3.5816C47.9493 3.13942 48.0392 2.72458 48.2173 2.33318C48.3982 1.94256 48.6345 1.60624 48.9306 1.32031C49.2263 1.03672 49.5688 0.810158 49.9579 0.639457C50.3493 0.471491 50.7657 0.387512 51.2094 0.387512C51.8626 0.387512 52.452 0.582041 52.9797 0.971879C53.5055 1.36367 53.7699 1.96014 53.7699 2.75974C53.7699 3.20348 53.6805 3.61988 53.5008 4.0105C53.3223 4.40112 53.086 4.73744 52.7899 5.02337C52.4965 5.30735 52.1508 5.53313 51.7626 5.70227C51.3708 5.87297 50.9559 5.95383 50.5137 5.95383Z" fill="#4D4D4D"/>
<path d="M56.325 3.8355L61.2292 3.07574L60.0249 7.98036H65.2772L64.3288 11.8389H59.1081L57.7175 17.6591C57.5894 18.1443 57.5168 18.5974 57.4964 19.0185C57.4734 19.4415 57.5269 19.8048 57.6535 20.1106C57.7793 20.4173 58.0054 20.6536 58.3335 20.8208C58.6601 20.9907 59.1277 21.0762 59.7409 21.0762C60.246 21.0762 60.7382 21.0282 61.214 20.9329C61.687 20.8391 62.1663 20.7087 62.6514 20.538L63.0007 24.1457C62.3679 24.3778 61.6827 24.5774 60.9444 24.7453C60.205 24.9156 59.3296 24.9977 58.3179 24.9977C56.8633 24.9977 55.7355 24.7817 54.932 24.3516C54.1297 23.9184 53.5625 23.3266 53.2231 22.5774C52.8883 21.8309 52.7387 20.9704 52.7805 20.0009C52.8239 19.029 52.9703 18.0075 53.2231 16.9318L56.325 3.8355Z" fill="#4D4D4D"/>
<path d="M65.0709 17.9759C65.0709 16.5427 65.303 15.1912 65.7666 13.926C66.2295 12.6596 66.8963 11.5522 67.7615 10.6018C68.6236 9.65611 69.674 8.9069 70.9103 8.35691C72.1407 7.81004 73.5184 7.53427 75.0368 7.53427C75.9872 7.53427 76.836 7.62412 77.5828 7.80419C78.3328 7.98583 79.0113 8.2206 79.625 8.51512L78.0102 12.1869C77.5883 12.0158 77.1504 11.8651 76.6977 11.7283C76.2446 11.5889 75.6915 11.5217 75.0372 11.5217C73.4743 11.5217 72.2388 12.0604 71.3193 13.1342C70.4033 14.2088 69.9419 15.6552 69.9419 17.4697C69.9419 18.545 70.174 19.4146 70.6396 20.0798C71.1029 20.745 71.9587 21.0759 73.2013 21.0759C73.8145 21.0759 74.4063 21.0118 74.9731 20.8868C75.5442 20.7602 76.0485 20.6009 76.4926 20.4126L76.8422 24.1766C76.25 24.4063 75.5969 24.6137 74.8805 24.7953C74.1626 24.9707 73.3079 25.0617 72.3169 25.0617C71.0087 25.0617 69.9013 24.8703 68.9955 24.4934C68.0892 24.1106 67.3404 23.6024 66.7506 22.9586C66.1576 22.3133 65.7319 21.5598 65.4686 20.695C65.2053 19.831 65.0709 18.9232 65.0709 17.9759Z" fill="#4D4D4D"/>
<path d="M85.8714 25.0617C84.7538 25.0617 83.7831 24.8914 82.9597 24.5543C82.1386 24.2172 81.4586 23.7442 80.9207 23.1309C80.382 22.5208 79.9789 21.7977 79.7027 20.9645C79.4266 20.1317 79.2938 19.2095 79.2938 18.1989C79.2938 16.9314 79.4973 15.6642 79.9086 14.4006C80.318 13.1342 80.9254 11.9963 81.7293 10.985C82.5269 9.97213 83.5109 9.14401 84.6695 8.49831C85.8269 7.85692 87.1581 7.53427 88.6534 7.53427C89.7506 7.53427 90.7162 7.70497 91.551 8.04207C92.3818 8.37839 93.0662 8.85534 93.6072 9.46549C94.1424 10.0788 94.549 10.7987 94.8224 11.633C95.0978 12.4643 95.2338 13.3889 95.2338 14.4002C95.2338 15.6638 95.033 16.931 94.6345 18.1986C94.2357 19.4599 93.6439 20.6005 92.8627 21.6141C92.083 22.6254 91.108 23.4532 89.937 24.0961C88.7674 24.7391 87.4112 25.0617 85.8714 25.0617ZM88.2116 11.5221C87.5175 11.5221 86.9038 11.7237 86.3784 12.1217C85.8511 12.5244 85.4081 13.0307 85.0511 13.6412C84.6902 14.2545 84.4226 14.9232 84.2417 15.6502C84.0624 16.3787 83.9745 17.0673 83.9745 17.7216C83.9745 18.7775 84.1449 19.5997 84.4796 20.1915C84.8191 20.7802 85.4288 21.0762 86.3151 21.0762C87.0116 21.0762 87.6222 20.8763 88.1507 20.4739C88.6749 20.0743 89.1182 19.5677 89.478 18.956C89.8366 18.3458 90.1065 17.6751 90.2873 16.947C90.4643 16.2209 90.5545 15.5283 90.5545 14.8752C90.5545 13.8221 90.385 12.9979 90.0471 12.4069C89.7096 11.8182 89.0971 11.5221 88.2116 11.5221Z" fill="#4D4D4D"/>
<path d="M100.336 24.6203H95.6497L99.604 7.98114H104.321L100.336 24.6203ZM102.611 5.95383C101.958 5.95383 101.366 5.7593 100.841 5.36946C100.313 4.98197 100.049 4.3855 100.049 3.5816C100.049 3.13942 100.14 2.72458 100.318 2.33318C100.497 1.94256 100.734 1.60624 101.031 1.32031C101.325 1.03672 101.67 0.810158 102.059 0.639457C102.448 0.471491 102.864 0.387512 103.306 0.387512C103.961 0.387512 104.552 0.582041 105.079 0.971879C105.606 1.36367 105.872 1.96014 105.872 2.75974C105.872 3.20348 105.777 3.61988 105.6 4.0105C105.423 4.40112 105.186 4.73744 104.891 5.02337C104.594 5.30735 104.252 5.53313 103.863 5.70227C103.471 5.87297 103.055 5.95383 102.611 5.95383Z" fill="#4D4D4D"/>
<path d="M107.695 8.73775C108.051 8.63385 108.448 8.50885 108.879 8.37292C109.312 8.23698 109.796 8.11043 110.337 7.99637C110.872 7.87879 111.475 7.78348 112.139 7.70965C112.803 7.63426 113.559 7.59753 114.399 7.59753C116.869 7.59753 118.571 8.31667 119.511 9.75063C120.45 11.1846 120.612 13.1471 120.003 15.6345L117.849 24.6188H113.136L115.223 15.8236C115.351 15.2744 115.451 14.7435 115.524 14.2248C115.599 13.7107 115.595 13.2576 115.508 12.8654C115.424 12.4779 115.228 12.1607 114.924 11.915C114.615 11.6733 114.148 11.5518 113.515 11.5518C112.905 11.5518 112.283 11.6174 111.649 11.744L108.58 24.6184H103.865L107.695 8.73775Z" fill="#4D4D4D"/>
</svg>
